…
**Figure LA4.1** shows a redrawing of one of the most famous data visualizations of all time: John Snow’s 1854 map of cholera deaths. The map is elegant in its simplicity. In the background, we have a street map, which helps orient the viewer. Over the top, we see a large number of small dots, each one representing the location of a cholera case. The larger symbols show the location of water pumps, labeled by name. Even the most casual inspection of the graph makes it very clear that the source of the outbreak is almost certainly the Broad Street pump. Upon viewing this graph, Dr. Snow arranged to have the handle removed from the pump, ending the outbreak that had killed over 500 people. Such is the power of good data visualization.

The goals of this chapter are twofold: firstly, to discuss several fairly standard graphs that we use a lot when analyzing and presenting data, and secondly, to show you how to create these graphs in R. Most of the time you can produce a clean, high-quality graphic without having to learn very much about the low-level details of how R handles graphics.&#x20;

R doesn’t really provide a single coherent graphics system. Instead, R itself provides a platform, and different people have built different graphical tools using that platform. Something that surprises most new R users is the discovery that R actually has independent graphics systems, e.g., **traditional graphics** (in the `graphics` package) and **grid graphics** (in the `grid` package). The grid universe relies heavily on two different packages – `lattice` and `ggplot2` – each of which provides a quite different visual style. For the purpose of this class, we will talk about the package `ggplot2`.&#x20;

&#x20;So let’s start painting.

Let’s use our first graph to answer a question: Do cars with big engines use more fuel than cars with small engines? You probably already have an answer, but try to make your answer precise. What does the relationship between engine size and fuel efficiency look like? Is it positive? Negative? Linear? Nonlinear?

You can test your answer with the dataframe `mpg` found in `ggplot2` . The dataframe `mpg` contains observations collected by the US Environmental Protection Agency on 38 car models.

```
mpg
A tibble: 234 x 11
  manufacturer model displ  year   cyl trans      drv     cty   hwy fl    class 
  <chr>        <chr> <dbl> <int> <int> <chr>      <chr> <int> <int> <chr> <chr> 
1 audi         a4      1.8  1999     4 auto(l5)   f        18    29 p     compa…
2 audi         a4      1.8  1999     4 manual(m5) f        21    29 p     compa…
3 audi         a4      2    2008     4 manual(m6) f        20    31 p     compa…
4 audi         a4      2    2008     4 auto(av)   f        21    30 p     compa…
5 audi         a4      2.8  1999     6 auto(l5)   f        16    26 p     compa…
6 audi         a4      2.8  1999     6 manual(m5) f        18    26 p     compa…
# … with 228 more rows
```
…
